{
    "identifier": 1,
    "hasIonizationMode": "positive",
    "hasModifier": "modifier_NH3",
    "hasPutativeAnnotation": [
        {
            "identifier": 3,
            "empiricalCompound": {
                "mass": 399.3367,
                "retentionTime": 18.8425
            },
            "theoreticalCompound": {
                "identifier": 32675,
                "name": "L-palmitoylcarnitine"
            },
            "adduct": "M+H"
        },
        {
            "identifier": 81,
            "empiricalCompound": {
                "mass": 421.3169,
                "retentionTime": 18.8425
            },
            "theoreticalCompound": {
                "identifier": 6692,
                "name": "PG(P-20:0/22:2(13Z,16Z))"
            },
            "adduct": "M+2H"
        },
        {
            "identifier": 82,
            "empiricalCompound": {
                "mass": 421.3169,
                "retentionTime": 18.8425
            },
            "theoreticalCompound": {
                "identifier": 32675,
                "name": "L-palmitoylcarnitine"
            },
            "adduct": "M+Na"
        },
        {
            "identifier": 98,
            "empiricalCompound": {
                "mass": 315.2424,
                "retentionTime": 8.1449
            },
            "theoreticalCompound": {
                "identifier": 32602,
                "name": "O-decanoyl-R-carnitine"
            },
            "adduct": "M+H"
        },
        {
            "identifier": 104,
            "empiricalCompound": {
                "mass": 280.2402,
                "retentionTime": 28.2695
            },
            "theoreticalCompound": {
                "identifier": 26629,
                "name": "14,17-Octadecadienoic acid "
            },
            "adduct": "M+H"
        },
        {
            "identifier": 205,
            "empiricalCompound": {
                "mass": 280.2402,
                "retentionTime": 28.2695
            },
            "theoreticalCompound": {
                "identifier": 31528,
                "name": "11-Hexadecynyl acetate"
            },
            "adduct": "M+H"
        },
        {
            "identifier": 296,
            "empiricalCompound": {
                "mass": 495.3352,
                "retentionTime": 19.4689
            },
            "theoreticalCompound": {
                "identifier": 2628,
                "name": "PC(O-14:0/2:0)"
            },
            "adduct": "M+H"
        },
        {
            "identifier": 315,
            "empiricalCompound": {
                "mass": 517.3172,
                "retentionTime": 19.4689
            },
            "theoreticalCompound": {
                "identifier": 2628,
                "name": "PC(O-14:0/2:0)"
            },
            "adduct": "M+Na"
        },
        {
            "identifier": 187,
            "empiricalCompound": {
                "mass": 280.2402,
                "retentionTime": 28.2695
            },
            "theoreticalCompound": {
                "identifier": 31499,
                "name": "10E,12E-Hexadecadienyl acetate"
            },
            "adduct": "M+H"
        },
        {
            "identifier": 496,
            "empiricalCompound": {
                "mass": 282.2563,
                "retentionTime": 31.2616
            },
            "theoreticalCompound": {
                "identifier": 31512,
                "name": "10Z-Hexadecenyl acetate"
            },
            "adduct": "M+H"
        }
    ]
}
